^C:\USERS\משתמש\DESKTOP\MAGSHIMIM\MAGSHIMIM2\C++\YUVALYERUSHALMIHW\LESSON6\MYPOINTEXACTLY\DEBUG\MAIN.OBJ|C:\USERS\משתמש\DESKTOP\MAGSHIMIM\MAGSHIMIM2\C++\YUVALYERUSHALMIHW\LESSON6\MYPOINTEXACTLY\DEBUG\POINT.OBJ
/OUT:"C:\USERS\משתמש\DESKTOP\MAGSHIMIM\MAGSHIMIM2\C++\YUVALYERUSHALMIHW\LESSON6\DEBUG\MYPOINTEXACTLY.EXE" /INCREMENTAL /NOLOGO KERNEL32.LIB USER32.LIB GDI32.LIB WINSPOOL.LIB COMDLG32.LIB ADVAPI32.LIB SHELL32.LIB OLE32.LIB OLEAUT32.LIB UUID.LIB ODBC32.LIB ODBCCP32.LIB /MANIFEST /MANIFESTUAC:"level='asInvoker' uiAccess='false'" /manifest:embed /DEBUG:FASTLINK /PDB:"C:\USERS\משתמש\DESKTOP\MAGSHIMIM\MAGSHIMIM2\C++\YUVALYERUSHALMIHW\LESSON6\DEBUG\MYPOINTEXACTLY.PDB" /SUBSYSTEM:CONSOLE /TLBID:1 /DYNAMICBASE /NXCOMPAT /IMPLIB:"C:\USERS\משתמש\DESKTOP\MAGSHIMIM\MAGSHIMIM2\C++\YUVALYERUSHALMIHW\LESSON6\DEBUG\MYPOINTEXACTLY.LIB" /MACHINE:X86 DEBUG\MAIN.OBJ
DEBUG\POINT.OBJ
^C:\USERS\משתמש\DESKTOP\MAGSHIMIM\MAGSHIMIM2\C++\DEBUGWORKSHOP\MYPOINTEXACTLY\DEBUG\MAIN.OBJ|C:\USERS\משתמש\DESKTOP\MAGSHIMIM\MAGSHIMIM2\C++\DEBUGWORKSHOP\MYPOINTEXACTLY\DEBUG\POINT.OBJ
/OUT:"C:\USERS\משתמש\DESKTOP\MAGSHIMIM\MAGSHIMIM2\C++\DEBUGWORKSHOP\DEBUG\MYPOINTEXACTLY.EXE" /INCREMENTAL /NOLOGO KERNEL32.LIB USER32.LIB GDI32.LIB WINSPOOL.LIB COMDLG32.LIB ADVAPI32.LIB SHELL32.LIB OLE32.LIB OLEAUT32.LIB UUID.LIB ODBC32.LIB ODBCCP32.LIB /MANIFEST /MANIFESTUAC:"level='asInvoker' uiAccess='false'" /manifest:embed /DEBUG:FASTLINK /PDB:"C:\USERS\משתמש\DESKTOP\MAGSHIMIM\MAGSHIMIM2\C++\DEBUGWORKSHOP\DEBUG\MYPOINTEXACTLY.PDB" /SUBSYSTEM:CONSOLE /TLBID:1 /DYNAMICBASE /NXCOMPAT /IMPLIB:"C:\USERS\משתמש\DESKTOP\MAGSHIMIM\MAGSHIMIM2\C++\DEBUGWORKSHOP\DEBUG\MYPOINTEXACTLY.LIB" /MACHINE:X86 DEBUG\MAIN.OBJ
DEBUG\POINT.OBJ
