^C:\USERS\משתמש\DESKTOP\MAGSHIMIM\MAGSHIMIM2\C++\YUVALYERUSHALMIHW\LESSON6\IMAGESANDWORDS\IMAGES.CPP
/c /ZI /JMC /nologo /W3 /WX- /diagnostics:column /sdl /Od /Oy- /D _MBCS /Gm- /EHsc /RTC1 /MDd /GS /fp:precise /permissive- /Zc:wchar_t /Zc:forScope /Zc:inline /Fo"DEBUG\\" /Fd"DEBUG\VC142.PDB" /Gd /TP /analyze- /FC C:\USERS\משתמש\DESKTOP\MAGSHIMIM\MAGSHIMIM2\C++\YUVALYERUSHALMIHW\LESSON6\IMAGESANDWORDS\IMAGES.CPP
^C:\USERS\משתמש\DESKTOP\MAGSHIMIM\MAGSHIMIM2\C++\DEBUGWORKSHOP\IMAGESANDWORDS\IMAGES.CPP
/c /ZI /JMC /nologo /W3 /WX- /diagnostics:column /sdl /Od /Oy- /D _MBCS /Gm- /EHsc /RTC1 /MDd /GS /fp:precise /permissive- /Zc:wchar_t /Zc:forScope /Zc:inline /Fo"DEBUG\\" /Fd"DEBUG\VC142.PDB" /Gd /TP /analyze- /FC C:\USERS\משתמש\DESKTOP\MAGSHIMIM\MAGSHIMIM2\C++\DEBUGWORKSHOP\IMAGESANDWORDS\IMAGES.CPP
