^C:\USERS\משתמש\DESKTOP\MAGSHIMIM\MAGSHIMIM2\C++\YUVALYERUSHALMIHW\LESSON6\PASSWORD\DEBUG\PASSWORD.OBJ
/OUT:"C:\USERS\משתמש\DESKTOP\MAGSHIMIM\MAGSHIMIM2\C++\YUVALYERUSHALMIHW\LESSON6\DEBUG\PASSWORD.EXE" /INCREMENTAL /NOLOGO KERNEL32.LIB USER32.LIB GDI32.LIB WINSPOOL.LIB COMDLG32.LIB ADVAPI32.LIB SHELL32.LIB OLE32.LIB OLEAUT32.LIB UUID.LIB ODBC32.LIB ODBCCP32.LIB /MANIFEST /MANIFESTUAC:"level='asInvoker' uiAccess='false'" /manifest:embed /DEBUG:FASTLINK /PDB:"C:\USERS\משתמש\DESKTOP\MAGSHIMIM\MAGSHIMIM2\C++\YUVALYERUSHALMIHW\LESSON6\DEBUG\PASSWORD.PDB" /SUBSYSTEM:CONSOLE /TLBID:1 /DYNAMICBASE /NXCOMPAT /IMPLIB:"C:\USERS\משתמש\DESKTOP\MAGSHIMIM\MAGSHIMIM2\C++\YUVALYERUSHALMIHW\LESSON6\DEBUG\PASSWORD.LIB" /MACHINE:X86 DEBUG\PASSWORD.OBJ
^C:\USERS\משתמש\DESKTOP\MAGSHIMIM\MAGSHIMIM2\C++\DEBUGWORKSHOP\PASSWORD\DEBUG\PASSWORD.OBJ
/OUT:"C:\USERS\משתמש\DESKTOP\MAGSHIMIM\MAGSHIMIM2\C++\DEBUGWORKSHOP\DEBUG\PASSWORD.EXE" /INCREMENTAL /NOLOGO KERNEL32.LIB USER32.LIB GDI32.LIB WINSPOOL.LIB COMDLG32.LIB ADVAPI32.LIB SHELL32.LIB OLE32.LIB OLEAUT32.LIB UUID.LIB ODBC32.LIB ODBCCP32.LIB /MANIFEST /MANIFESTUAC:"level='asInvoker' uiAccess='false'" /manifest:embed /DEBUG:FASTLINK /PDB:"C:\USERS\משתמש\DESKTOP\MAGSHIMIM\MAGSHIMIM2\C++\DEBUGWORKSHOP\DEBUG\PASSWORD.PDB" /SUBSYSTEM:CONSOLE /TLBID:1 /DYNAMICBASE /NXCOMPAT /IMPLIB:"C:\USERS\משתמש\DESKTOP\MAGSHIMIM\MAGSHIMIM2\C++\DEBUGWORKSHOP\DEBUG\PASSWORD.LIB" /MACHINE:X86 DEBUG\PASSWORD.OBJ
